{
    "Header": {
        "img": "img/cleancodezone.png",
        "title": "CleanCodeZone",
        "subtitle": "development and trainings",
        "paragraph": "CCZone provides ample opportunities for both offline and online web development trainings."

    },
    "About": {
        "paragraph": "CCZone is a start-up company that deals with business software solutions. We operate in areas such as Landing Pages, Web Applications, Website Analyzing, trainings at various levels. We take into account the opinion and desire of our customers. Our motto is: Fast, Safe, Effective.",
        "Why": [
            "Your time is important to us",
            "We offer simple solutions to complex problems",
            "We work quickly, safely and efficiently"
        ]
    },
    "Services": [
        {
            "icon": "fa fa-globe",
            "name": "Online Courses",
            "text": "Our academy organizes online web-programming trainings to save your time."
        },
        {
            "icon": "fa fa-graduation-cap",
            "name": "Offline Courses",
            "text": "Our academy organizes trainings with experienced and professional programmers."
        },
        {
            "icon": "fa fa-cart-arrow-down",
            "name": "Web Applications",
            "text": "We create functional, effective and creative websites for your business and company."
        },
        {
            "icon": "fa fa-mobile-phone",
            "name": "Mobile Applications",
            "text": "We create productive mobile apps for you."
        },
        {
            "icon": "fa fa-pie-chart",
            "name": "Website Analyze",
            "text": "Our team of analysts analyzes and gives recommendations for the development of your website."
        },
        {
            "icon": "fa fa-wordpress",
            "name": "Landing Pages",
            "text": "We create creative landing pages for your business."
        }
    ],
    "Testimonials": [{
            "img": "img/testimonials/01.jpg",
            "text": "\"Lorem ipsum dolor sit amet, consectetur adipiscing elit. Duis sed dapibus leo nec ornare diam sedasd commodo nibh ante facilisis bibendum dolor feugiat at.\"",
            "name": "John Doe"
        },
        {
            "img": "img/testimonials/02.jpg",
            "text": "\"Lorem ipsum dolor sit amet, consectetur adipiscing elit. Duis sed dapibus leo nec ornare diam sedasd commodo nibh ante facilisis bibendum dolor feugiat at.\"",
            "name": "Johnathan Doe"
        },
        {
            "img": "img/testimonials/03.jpg",
            "text": "\"Lorem ipsum dolor sit amet, consectetur adipiscing elit. Duis sed dapibus leo nec ornare diam sedasd commodo nibh ante facilisis bibendum dolor feugiat at.\"",
            "name": "John Doe"
        },
        {
            "img": "img/testimonials/04.jpg",
            "text": "\"Lorem ipsum dolor sit amet, consectetur adipiscing elit. Duis sed dapibus leo nec ornare diam sedasd commodo nibh ante facilisis bibendum dolor feugiat at.\"",
            "name": "Johnathan Doe"
        },
        {
            "img": "img/testimonials/05.jpg",
            "text": "\"Lorem ipsum dolor sit amet, consectetur adipiscing elit. Duis sed dapibus leo nec ornare diam sedasd commodo nibh ante facilisis bibendum dolor feugiat at.\"",
            "name": "John Doe"
        },
        {
            "img": "img/testimonials/06.jpg",
            "text": "\"Lorem ipsum dolor sit amet, consectetur adipiscing elit. Duis sed dapibus leo nec ornare diam sedasd commodo nibh ante facilisis bibendum dolor feugiat at.\"",
            "name": "Johnathan Doe"
        }
    ],
    "Team": [{
            "img": "img/team/01.jpg",
            "name": "Nelson Khachatryan",
            "job": "Director"
        },
        {
            "img": "img/team/02.jpg",
            "name": "Artur Galoyan",
            "job": "Senior Designer"
        }
    ],
    "Contact": {
        "address": "Hakob Hakobyan 3",
        "phone": "+374 99999999",
        "email": "info@cleancodezone.org",
        "facebook": "https://www.facebook.com/cleancodezone",
        "twitter": "https://twitter.com",
        "linkedin": "https://linkedin.com"
    },
    "Features": [{
            "icon": "fa fa-fast-forward",
            "title": "FAST",
            "text": "Your time is important to us."
        },
        {
            "icon": "fa fa-magic",
            "title": "EFFECTIVE",
            "text": "We work effectively and efficiently."
        },
        {
            "icon": "fa fa-shield",
            "title": "SAFE",
            "text": "Your safety is important to us."
        }
    ],
    "Products": [{
            "icon": "fa fa-newspaper-o",
            "title": "News",
            "text": "Your time is important to us."
        },
        {
            "icon": "fa fa-magic",
            "title": "Blog",
            "text": "We work effectively and efficiently."
        },
        {
            "icon": "fa fa-forumbee",
            "title": "Forum",
            "text": "Your safety is important to us."
        }
    ]
}